%YAML 1.1
%TAG !u! tag:unity3d.com,2011:
--- !u!65 &9046154026734701424
BoxCollider:
  m_ObjectHideFlags: 0
  m_CorrespondingSourceObject: {fileID: 0}
  m_PrefabInstance: {fileID: 0}
  m_PrefabAsset: {fileID: 0}
  m_GameObject: {fileID: 7905056420810146903}
  m_Material: {fileID: 0}
  m_IsTrigger: 0
  m_Enabled: 1
  serializedVersion: 2
  m_Size: {x: 0.04723122, y: 0.009999998, z: 0.064592935}
  m_Center: {x: 0.00014634413, y: 0, z: -0.0010274651}
--- !u!1 &9046154028110272720
GameObject:
  m_ObjectHideFlags: 0
  m_CorrespondingSourceObject: {fileID: 0}
  m_PrefabInstance: {fileID: 0}
  m_PrefabAsset: {fileID: 0}
  serializedVersion: 6
  m_Component:
  - component: {fileID: 9046154028110272727}
  m_Layer: 0
  m_Name: Tree
  m_TagString: Untagged
  m_Icon: {fileID: 0}
  m_NavMeshLayer: 0
  m_StaticEditorFlags: 0
  m_IsActive: 1
--- !u!4 &9046154028110272727
Transform:
  m_ObjectHideFlags: 0
  m_CorrespondingSourceObject: {fileID: 0}
  m_PrefabInstance: {fileID: 0}
  m_PrefabAsset: {fileID: 0}
  m_GameObject: {fileID: 9046154028110272720}
  m_LocalRotation: {x: -0, y: -0, z: -0, w: 1}
  m_LocalPosition: {x: 95, y: -3.125, z: -56}
  m_LocalScale: {x: 150, y: 150, z: 150}
  m_Children:
  - {fileID: 4103010047946268126}
  m_Father: {fileID: 0}
  m_RootOrder: 0
  m_LocalEulerAnglesHint: {x: 0, y: 0, z: 0}
--- !u!1001 &9046154027761120964
PrefabInstance:
  m_ObjectHideFlags: 0
  serializedVersion: 2
  m_Modification:
    m_TransformParent: {fileID: 9046154028110272727}
    m_Modifications:
    - target: {fileID: -4216859302048453862, guid: a086e5d430d7571469cd24416cd1cff9,
        type: 3}
      propertyPath: m_LocalPosition.x
      value: 0
      objectReference: {fileID: 0}
    - target: {fileID: -4216859302048453862, guid: a086e5d430d7571469cd24416cd1cff9,
        type: 3}
      propertyPath: m_LocalPosition.y
      value: 0
      objectReference: {fileID: 0}
    - target: {fileID: -4216859302048453862, guid: a086e5d430d7571469cd24416cd1cff9,
        type: 3}
      propertyPath: m_LocalPosition.z
      value: -0.030264992
      objectReference: {fileID: 0}
    - target: {fileID: -4216859302048453862, guid: a086e5d430d7571469cd24416cd1cff9,
        type: 3}
      propertyPath: m_LocalRotation.x
      value: -0
      objectReference: {fileID: 0}
    - target: {fileID: -4216859302048453862, guid: a086e5d430d7571469cd24416cd1cff9,
        type: 3}
      propertyPath: m_LocalRotation.y
      value: 1
      objectReference: {fileID: 0}
    - target: {fileID: -4216859302048453862, guid: a086e5d430d7571469cd24416cd1cff9,
        type: 3}
      propertyPath: m_LocalRotation.z
      value: -0
      objectReference: {fileID: 0}
    - target: {fileID: -4216859302048453862, guid: a086e5d430d7571469cd24416cd1cff9,
        type: 3}
      propertyPath: m_LocalRotation.w
      value: 0.00000011920929
      objectReference: {fileID: 0}
    - target: {fileID: -4216859302048453862, guid: a086e5d430d7571469cd24416cd1cff9,
        type: 3}
      propertyPath: m_RootOrder
      value: 0
      objectReference: {fileID: 0}
    - target: {fileID: -4216859302048453862, guid: a086e5d430d7571469cd24416cd1cff9,
        type: 3}
      propertyPath: m_LocalEulerAnglesHint.x
      value: 0
      objectReference: {fileID: 0}
    - target: {fileID: -4216859302048453862, guid: a086e5d430d7571469cd24416cd1cff9,
        type: 3}
      propertyPath: m_LocalEulerAnglesHint.y
      value: 180.00002
      objectReference: {fileID: 0}
    - target: {fileID: -4216859302048453862, guid: a086e5d430d7571469cd24416cd1cff9,
        type: 3}
      propertyPath: m_LocalEulerAnglesHint.z
      value: 0
      objectReference: {fileID: 0}
    - target: {fileID: -927199367670048503, guid: a086e5d430d7571469cd24416cd1cff9,
        type: 3}
      propertyPath: m_Name
      value: tree (9)
      objectReference: {fileID: 0}
    m_RemovedComponents: []
  m_SourcePrefab: {fileID: 100100000, guid: a086e5d430d7571469cd24416cd1cff9, type: 3}
--- !u!4 &4103010047946268126 stripped
Transform:
  m_CorrespondingSourceObject: {fileID: -4216859302048453862, guid: a086e5d430d7571469cd24416cd1cff9,
    type: 3}
  m_PrefabInstance: {fileID: 9046154027761120964}
  m_PrefabAsset: {fileID: 0}
--- !u!1 &7905056420810146903 stripped
GameObject:
  m_CorrespondingSourceObject: {fileID: -8052994932809076077, guid: a086e5d430d7571469cd24416cd1cff9,
    type: 3}
  m_PrefabInstance: {fileID: 9046154027761120964}
  m_PrefabAsset: {fileID: 0}
