%YAML 1.1
%TAG !u! tag:unity3d.com,2011:
--- !u!114 &11400000
MonoBehaviour:
  m_ObjectHideFlags: 0
  m_CorrespondingSourceObject: {fileID: 0}
  m_PrefabInstance: {fileID: 0}
  m_PrefabAsset: {fileID: 0}
  m_GameObject: {fileID: 0}
  m_Enabled: 1
  m_EditorHideFlags: 0
  m_Script: {fileID: -770389242, guid: 4df21bd079886d84699ca7be1316c7a7, type: 3}
  m_Name: Default Material Palette
  m_EditorClassIdentifier: 
  array:
  - {fileID: 2100000, guid: c22777d6e868e4f2fb421913386b154e, type: 2}
  - {fileID: 2100000, guid: f6d6412823ca80941ae71cb5c0c132bd, type: 2}
  - {fileID: 2100000, guid: 717e931a79a0f714bbd9a368e19a6cde, type: 2}
  - {fileID: 2100000, guid: 2e66dc1d379b88f4eadb6ddfbb65eea4, type: 2}
  - {fileID: 2100000, guid: f41bac8f712eb1547a412538e34706b1, type: 2}
  - {fileID: 2100000, guid: d1dade8817d7cf942a63777baf97ce4e, type: 2}
  - {fileID: -1294284738371021749, guid: b84380b6c6e26af41a8b13cd2084fa66, type: 3}
  - {fileID: 0}
  - {fileID: 0}
  - {fileID: 0}
